<!-- Generated by IcoMoon.io -->
<svg version="1.1" xmlns="http://www.w3.org/2000/svg" height="55" width="55" viewBox="0 0 1024 1024">
<title></title>
<g id="icomoon-ignore">
</g>
<path fill="white" d="M512.48 603.552l-130.304-106.976-283.584 334.816h828.032l-283.616-338.144-130.528 110.304zM957.632 192.608h-890.080l445.056 374.336 445.024-374.336zM662.56 476.384l297.312 354.688v-606.464l-297.312 251.776zM64.128 224.608v606.464l297.312-354.688-297.312-251.776z"></path>
</svg>
